…
    sheffield_od$Active = (sheffield_od$bicycle + sheffield_od$foot) / sheffield_od$all * 100

    od_intra = filter(sheffield_od, geo_code1 == geo_code2)

    od_inter = filter(sheffield_od, geo_code1 != geo_code2)

    od_inter %>%
      dplyr::rename(geo_code = geo_code1)

    ## # A tibble: 21,734 × 19
    ##    geo_code  geo_code2   all from_home light_rail train   bus  taxi motorbike
    ##    <chr>     <chr>     <dbl>     <dbl>      <dbl> <dbl> <dbl> <dbl>     <dbl>
    ##  1 E02001611 E02000136     1         0          0     0     1     0         0
    ##  2 E02001611 E02000470     1         0          0     0     0     0         0
    ##  3 E02001611 E02000476     1         0          0     0     0     0         0
    ##  4 E02001611 E02000573     1         0          0     1     0     0         0
    ##  5 E02001611 E02000576     1         0          0     0     0     0         0
    ##  6 E02001611 E02000586     1         0          0     0     0     0         0
    ##  7 E02001611 E02000808     1         0          1     0     0     0         0
    ##  8 E02001611 E02000980     1         0          0     1     0     0         0
    ##  9 E02001611 E02000990     1         0          0     0     0     0         0
    ## 10 E02001611 E02001017     1         0          0     0     0     0         0
    ## # … with 21,724 more rows, and 10 more variables: car_driver <dbl>,
    ## #   car_passenger <dbl>, bicycle <dbl>, foot <dbl>, other <dbl>,
    ## #   geo_name1 <chr>, geo_name2 <chr>, la_1 <chr>, la_2 <chr>, Active <dbl>
…
