…
    cycle_trips = get_pct_rnet(region="south-yorkshire")
    zones= get_pct_zones("south-yorkshire")

## Number of cycle trips made on the current road network

    cycle_trips %>%
      select(bicycle) 

    ## Simple feature collection with 13959 features and 1 field
    ## Geometry type: LINESTRING
    ## Dimension:     XY
    ## Bounding box:  xmin: -1.80518 ymin: 53.22274 xmax: -0.78008 ymax: 53.72545
    ## Geodetic CRS:  WGS 84
    ## # A tibble: 13,959 × 2
    ##    bicycle                               geometry
    ##      <dbl>                       <LINESTRING [°]>
    ##  1       0 (-1.27382 53.49635, -1.27248 53.49629)
    ##  2       0 (-1.48455 53.46944, -1.48379 53.47005)
    ##  3       0 (-1.29962 53.49839, -1.29851 53.49817)
    ##  4       0 (-1.43687 53.35997, -1.43641 53.36001)
    ##  5       0 (-1.46206 53.53462, -1.46174 53.53453)
    ##  6       0 (-1.46525 53.39479, -1.46489 53.39552)
    ##  7       0 (-1.49211 53.42029, -1.49106 53.42011)
    ##  8       0  (-1.53732 53.4046, -1.53728 53.40514)
    ##  9       0 (-1.54144 53.32423, -1.54136 53.32433)
    ## 10       0 (-1.39724 53.34529, -1.39637 53.34574)
    ## # … with 13,949 more rows
…
    sheffield_od$Active = (sheffield_od$bicycle + sheffield_od$foot) / sheffield_od$all * 100

    od_intra = filter(sheffield_od, geo_code1 == geo_code2)

    od_inter = filter(sheffield_od, geo_code1 != geo_code2)

    view(zones_od)

    od_inter %>%
      dplyr::rename(geo_code = geo_code1)

    ## # A tibble: 21,734 × 19
    ##    geo_code  geo_code2   all from_home light_rail train   bus  taxi motorbike
    ##    <chr>     <chr>     <dbl>     <dbl>      <dbl> <dbl> <dbl> <dbl>     <dbl>
    ##  1 E02001611 E02000136     1         0          0     0     1     0         0
    ##  2 E02001611 E02000470     1         0          0     0     0     0         0
    ##  3 E02001611 E02000476     1         0          0     0     0     0         0
    ##  4 E02001611 E02000573     1         0          0     1     0     0         0
    ##  5 E02001611 E02000576     1         0          0     0     0     0         0
    ##  6 E02001611 E02000586     1         0          0     0     0     0         0
    ##  7 E02001611 E02000808     1         0          1     0     0     0         0
    ##  8 E02001611 E02000980     1         0          0     1     0     0         0
    ##  9 E02001611 E02000990     1         0          0     0     0     0         0
    ## 10 E02001611 E02001017     1         0          0     0     0     0         0
    ## # … with 21,724 more rows, and 10 more variables: car_driver <dbl>,
    ## #   car_passenger <dbl>, bicycle <dbl>, foot <dbl>, other <dbl>,
    ## #   geo_name1 <chr>, geo_name2 <chr>, la_1 <chr>, la_2 <chr>, Active <dbl>
…
